,Text,Score
1,"Boateng wird nicht so richtig scharf attackiert? Na, dafür hat er ja auch #Gauland. ^jw #GERUKR",-1.0
2,"Wieder so ein Tag, wo man nichts Glitzerndes am Boden findet.",-1.0
3,"In Civilization sorgte ein Programmierfehler dafür, dass die Gandhi-Figur dazu tendierte, als Erster eine Atombombe abzufeuern. #UWDT",-1.0
4,Noch ist Steinmeier längst nicht Bundespräsident! Wer wäre Ihr Gegenkandidat?,0.0
5,"""Ein US-Militär fragte mich:'Glauben Sie an die offizielle Version der Bin-Laden-Operation? Dann sind Sie sehr naiv.' #brigittelive #fbm16",0.0
6,Eil +++ Nigeria-Militärjet bombardiert versehentlich Flüchtlinge - mehr als 100 Tote ++ Gleich mehr bei BILD!,-1.0
7,"Mit dem Tram zum Interview. Zu einem jungen, unverschämten Mann, einem Schweizer, der sagt: ""Ich fühle mich als Europäer"".",0.0
8,"Neue Redewendung gelernt an diesem Wochenende, von Gouverneur Jay Inslee: YOU COULDN'T RUN A TWO-CAR FUNERAL. Sie sind völlig inkompetent!",0.0
9,Guido Diana reiste wochenlang mit seiner Kamera durch Nordamerika - und knipste sich tapfer durch den Frost. /spon.de/aeTFp,1.0
10,"Diese Twitter-Woche geht bis zur Amerika-Wahl. Zeit für ein paar letzte Umfragen. Nr 1: Was meinen Sie, wer gewinnt am Dienstag?",0.0
11,"Sie haben noch 24h, um die aktuelle Ausgabe aufzulesen. Sonst gibt’s schlechtes Wetter.",0.0
12,"Es gibt Leute, die den Untergang der Kultur beschwören, aber ein Wort wie ""Umvolkung"" benutzen.",-1.0
13,“Ich bin mit Luther immer gut gefahren” #lutherzug,1.0
14,Is voll kalt,-1.0
16,"""Überall, wo es Menschen gibt, gibt es Dummheiten. Und zwar immer dieselben Dummheiten."" - Fontenelle",0.0
17,"""Lösch dich"" sagst du, aber ich bin aus dem Feuilleton, ich lösch nur die Lupinen (vgl. Bachmann ""Die gestundete Zeit"" Frankfurt a. M. 1953)",-1.0
18,"Älterwerden: Früher hing Abendglück daran, ob DJs gut &amp; Biere kalt waren. Jetzt hängts nur noch an den Gästen bei #Illner (""Nur Oppermann?"")",0.0
19,+++Eil+++ Gauck bestätigt: #Bundestagswahl am 24. September,0.0
20,Neueste Info aus der Bundespressekonferenz: nächste Woche geht es mal wieder um Europas Zukunft. Merkel trifft die wichtigsten Player,0.0
21,Korrektur: Es war ein V-Mann des Landeskriminalamtes. Wir bitten den Fehler zu entschuldigen.,-1.0
22,"Als 2010 herauskam, dass sich iPhone-Displays auch mit Würstchen bedienen lassen, entstand in Südkorea ein Würstchenboom. #UWDT",0.0
23,Manche Verbote werden ohne Sinn und Verstand aus dem Boden gestampft,-1.0
24,"""Öffnen Sie wieder Ihr Herz für Ihren Mann."" Bestsellerautorin Eva-Maria Zurhorst bei #brigittelive.",0.0
25,Pressefreiheit in Gefahr: Aus Sicherheitsgründen konnten Gesprächsteilnehmer im Vorfeld nicht angekündigt werden #SPIEGELlive #KoerberForum,0.0
26,Guten Morgen!,1.0
27,"Nichte,2 Jahre: ""darf ich deine Hose anmalen?"" Ich, nicht richtig verstanden: ""Wollen wir das zusammen machen?"" Jetzt hab ich Kunst to go.",0.0
28,Moin!,0.0
29,Sich selbst retweeten hmm... muss ich mir Sorgen machen?,-1.0
30,Pro-Tipp: die Uhr wird immer 1h Richtung Sommer umgestellt 🌞🔙⏲🤓 #Winterzeit #Zeitumstellung,0.0
31,"Uff... Jetzt heißt es wieder, der oder die müssten ""liefern"". Aber erst, wenn der oder die ihre ""Hausaufgaben gemacht haben"". #agh16",0.0
32,+++ EIL: Bahnchef Grube tritt zurück +++ (dpa) #deutschebahn,0.0
33,"Oh, die Aufstellung! Aber was gucken die denn alle so grimmig? War das Nutella heute Morgen alle? ^jw #ViveLaMannschaft #euro2016",-1.0
34,#Gauck: Demokratie ist kein politisches Versandhaus. Demokratie ist Mitgestaltung am eigenen Schicksal.,0.0
35,"""Aufstehen ist eine der großen Hürden im Leben. Erstaunlich, dass wir das alle täglich hinkriegen."" #brigittelive",0.0
36,Was ist erstrebenswert? Teilen und diskutieren Sie Ihre Vision von einer besseren Welt mit dem Hashtag #MeinUtopia.,0.0
37,"Samuel Pepys stand häufig morgens sehr früh auf, um ein wenig auf seiner Gambe zu spielen. Kluger Mann.",0.0
38,Bastian 🐷-Steiger! ^jw #GERITA #EURO2016,0.0
39,"... morgen muss ich eh wieder arbeiten. Selbst schuld, wenn man Ideen hat  :-)",0.0
40,"Zum Bsp. heißt die Partei der dortigen Diktatur ""Revolutionäre Demokratische Front der äthiopischen Völker (EPRDF)""   :-D",0.0
41,"Die wissenschaftliche Methode, um die sexuelle Erregung bei Männern zu messen, nennt sich Phallometrie. #UWDT",0.0
42,"23 uhr 20, gute nacht deutschland!!!!!",0.0
43,"Seit ich diesen Account in meiner Gewalt habe, folgt die ZEIT Justin Bieber. So fühlt sich also Macht an.",1.0
44,Und weiter geht's - #brigittelive im Gespräch mit Jenny Erpenbeck auf der Frankfurter Buchmesse.,0.0
45,"""Ich misstraue Coaching total."" #andreanahles #brigittelive",0.0
48,"Hipster, die sich in Bibliotheken aufhalten, werden im Netz #Bibster genannt. #UWDT",0.0
49,Von Biermann bis Wagenknecht verraten uns diese Woche 95 Autorinnen und Autoren: #wasistchristlich? Wie würden Sie antworten?,0.0
50,"[mir fällt jetzt erst auf, wie viele Kirchenleute ich bei Twitter kenne]",0.0
51,"80% meiner (privaten) Timeline gerade: Trump-Gegner, die sich gegenseitig kritisieren. Vielleicht auch ein Grund, warum Trump am Ende gewann",-1.0
52,"Sticht eine Mücke einen betrunkenen Menschen, so hat sie danach die halbe Blutalkohol-Konzentration wie ihr Opfer. #UWDT",0.0
53,"Frage meinen Zahnarzt was er von Marx hält. Idee sei gut aber die Welt noch nicht bereit, ruft er und düst im Porsche ab, ins Klischee-Land.",0.0
55,"Liebe Follower, ich wünsche Ihnen einen schönen Start ins Wochenende und gute Nacht!",1.0
58,"Derzeit sind elf Cumhuriyet-Mitglieder inhaftiert. Darunter auch der Küchenchef - weil er gesagt hat, er würde Erdogan keinen Tee servieren.",0.0
59,"Konferenzidee, die: Einfall, der nach zweistündiger Diskussion im sauerstoffarmen Raum brillant klingt #glossardesjournalismus",0.0
60,"Auf alle Fragen, die mit ""Warum...?"" beginnen, immer antworten: 
""WEIL ICH DAS SONST EINFACH NICHT MEHR AUSHALTE.""",-1.0
61,"Ich könnte ein gutes Buch lesen.  Mal gucken, ob ich sowas hab.",1.0
62,"Den Gruß per Handschlag gibt es seit dem Mittelalter. Er sollte zeigen, dass man keine Waffe führt. #UWDT",0.0
64,Jetzt mal ganz unter uns.,0.0
65,+++Eil+++ #Gabriel wird kein Kanzlerkandidat. #Schulz soll die #SPD in die Bundestagswahl führen.,1.0
66,"Eben in HH auf einem Panel der Bucerius Summer School gesessen zu US-Wahlen: Trump ist kein Solitär, sondern ein Symptom, weltweit",0.0
67,"Huch, schon wieder naechste Ausgabe",0.0
68,Oder wie wäre es ENDLICH mal mit einer Bundespräsidentin? Wer wäre Ihre Gegenkandidatin? #Steinmeier,0.0
69,Jetzt bitte noch ein Burkina Phraso - Verbot    #sorry #dieHitze,-1.0
70,Neben der Medienlandschaft sind bei Twitter Kirchenkreise überraschend gut vertreten. Und Kirche ist hier überraschend jung.,0.0
71,Moin.,0.0
72,"Respekt, Hillary Clinton

""Let us not lose heart""",1.0
74,#FIFA beschließt Mammut-WM: 48 Mannschaften bei Turnier 2026. Gleich mehr aus SPIEGEL ONLINE.,0.0
76,"Guten Morgen, mein Name ist Matthias Kalle, ich bin ab heute für eine Woche hier ihr Gastgeber.",1.0
77,Ich verabschiede mich aus dem Spiel. Vielen Dank fürs Mitmachen. Schlaft schön! ^jw #GERPOL #EURO2016,0.0
78,"Montag der große Test auf unserem Flur. Wie grüßen ZEIT-Redakteure? 
  Moin?
  Moin Moin?
  Hallo?
  Tach?
  Hi?
  Guten Tag?
  Gar nicht?",0.0
79,"""Berlin jagt Bayern"" - im Fußball ist halt alles irgendwie andersrum...",0.0
80,"In Polen ist der ""polnische Abgang"" ein englischer Abgang. #UWDT",0.0
81,"Nachtrag: Ben-Hatira engagierte sich für den salafistisch eingestuften Verein ""„Ansaar International“.",0.0
82,"++ EIL ++
Stasi-belasteter Staatssekretär Holm in Berlin tritt zurück. (dpa)
#handelsblatt #Holm #Berlin #Stasi #Staatssekretär #Eilmeldung",0.0
84,"Russland mache systematisch einflussreiche Medien mundtot, am liebsten durch Austausch kritischer Chefredakteure, schildert Timontschenko.",0.0
85,"Guten Morgen - heute wählt Berlin. Und wir fragen uns, ob dieses Riesen-iPad von Jörg Schönenborn das iOS-Update überstanden hat...",0.0
86,"Die SPD sei die einzige Partei in Deutschland, die nie ihren Namen ändern musste. Sagt #Schulz noch zum Abschluss.",0.0
88,Nach 8 Jahren Lutherdekade gehen die Feierlichkeiten zum 500. Jubiläum der Reformation heute erst richtig los. Für Sie ein Grund zum Feiern?,1.0
89,"Breaking: Wirtschaftsredaktion der Zeit taxiert Wahrscheinlichkeit, dass Trump gewinnt auf 35,77 Prozent (nach Kurzumfrage). Was denken Sie?",0.0
90,"... 7. #Maischberger - neuer Sendungstitel, neuer Sendeplatz 8. Legitimation des ör Rundfunks - Buch der Historischen Kommission #ARDPK 4/4",0.0
91,"""Ich bin noch jung und habe noch viel Zeit für Projekte. Vor allem jetzt, wo ich nicht mehr rauche."" #brigittelive #fbm16",1.0
93,"Unsere 6 Seiten sind auf dem Weg in die Herstellung 🎉 Den Kolleg_innen, die heute Abend/Nacht produzieren, viel Erfolg!",1.0
94,"Waehrend der Einzelne das Gefühl habe ueberflüssig zu sein, arbeiten die Biowissenschaften an der Unsterblichkeit des Menschen #satzschaetze",1.0
95,"Immer dieses ""Jetzt muss XY liefern"". Die foodoraisierung des Abendlandes.",-1.0
96,Draußen liegt Schnee. Dann ist es wenigstens heller #hamburgerwetter,1.0
97,"Ich hätte gern einen Roboter, der mich einfach in Ruhe lässt.",1.0
98,"Die Tiefgarage kann ich nicht zuordnen, aber ab Minute 1:40 wird der Domplatz bei uns vorm Haus (mit den Leuchtquadern) streetcredibilisiert",0.0
100,"Kurz vor dem Fest der Liebe ein Bekenntnis: Ich mag unsere Zeit-Kantine sehr. Und alle, die dort arbeiten. Danke, dass ihr uns satt macht💐!",1.0
101,"""Doch man sieht nur Kindergesichter. Der Blick ist direkt, keine Narben, keine Schatten."" Geschichte einer Kinderehe in Deutschland #diezeit",1.0
103,"Im Jenseits werden keine Jungfrauen auf ihn warten. Nur die in Ewigkeit dröhnende Erkenntnis, wie fatal dumm er gehandelt hat. #berlin",-1.0
105,"Zu Besuch aus #Moskau in Deutschland und wie immer Die Frage, wo die Autos hin sind und die Menschen. Und warum rempeln sie nicht?",0.0
106,Hallo ich begrüße Sie aus der Außenstelle in Österreich und freue mich auf die Zeit mit Ihnen,1.0
107,"Karola Wille: ""Wir sind schon heute  sehr transparent, arbeiten aber intensiv daran, das Maß der Sichtbarkeit weiter zu erhöhen."" #ARDPK",0.0
109,"Markus #Lanz empfängt um 23:45 Uhr folgende Gäste:

Anton Hofreiter 🌳🗣
Ulf Poschardt 🖋🗞
Dr. Marianne Koch 💉📚
Dagur Sigurdsson🏆🏐
Bela B 🎼🎤",0.0
111,"Künstliche Intelligenz entsprungen, wird von der Polizei gesucht: Das ist das Thema des Romans ""Ada"" von Antoine Bello. Werde ich lesen!",1.0
112,"Im Sommer 2015 in Washington erzählten alle, dass Hillarys Team nichts lieber wäre, als wenn Trump ihr Gegenspieler würde.

Welch ein Irrtum",0.0
113,Wir haben momentan technische Probleme mit der Seite. Es sollte aber bald wieder funktionieren.,0.0
115,"""Das Exportmodell stößt auf Kritik."" 2/",-1.0
116,"""Ich habe auch den allergrößten Respekt vor Frank Walter Steinmeier"" #Wulff in #Goslar",0.0
117,"Fischer: ""Europa wird sich nur unter Druck bewegen."" #SPIEGELlive",-1.0
118,"+++ EIL: 
Anadolu: #Russland und #Tuerkei einig über #Waffenruhe für #Syrien +++ (AFP)",0.0
119,"Der einzige Mensch, der auf seiner 1. Golfrunde gleich 11 hole in one schlug, war laut dem nordkorean. Informationsministerium Kim Jong Il.",0.0
122,Fragt sich gerade wer von den Kollegen eigentlich tätowiert ist #random #grossekonferenz,0.0
123,Wen sollte Jogi jetzt endlich einwechseln? ^jw #GERPOL #EURO2016,0.0
124,"#Satzschaetze. ""Mit allen Wassern des Postrukturalismus gewaschen."" Merke ich mir. Seite 46 / Feuilleton",0.0
125,Clinton: “The situation in Syria is catastrophic.” #Debates2016,-1.0
127,"Fakt ohne Kontext: Stephen Hawking sagt, er habe zum ersten Mal richtig angefangen zu arbeiten, als er heiraten wollte.",1.0
128,"""Attraktivität hat weniger mit dem Aussehen, als mit der inneren Einstellung zu tun."" #brigittelive",1.0
129,Zum Bsp. ist das Mittel der Organisation für die Oppositionellen:  Facebook. Wie im arabischen Frühling.,0.0
130,"Schweizer tragen den Ehering links, weil er dann näher am Herzen ist. #UWDT",0.0
132,"+++EIL
Abgasskandal: #VW vor milliardenschwerer #Einigung mit US-Behörden #Dieselgate",0.0
133,"Guten Morgen! Gamardschoba! Доброе утро! Ab heute twittere ich für Sie eine Woche aus Georgien, Deutschland und Russland, auf geht's!",1.0
134,"Müdigkeit, Ohnmachtsgefühle, Zweifel, paar Kekse, fünf Emails, Selbsthass und schon ist wieder ein Tag geschafft!",-1.0
135,"Politische Paradoxien 1: wenn ein Georgier sagt, wir Europäer sollten uns die EU nicht schlecht reden und zuversichtlich bleiben.",0.0
136,"Sonntagsspaziergang.Stalinallee. Mitgehört ""Frueher haben wir hier den Raketen gewunken, jetzt liken wir vegane Bagels!"" #Strangetimes",0.0
137,Dienstag. Produktionstag. Wir schubsen mal wieder unschuldige Buchstaben herum.,0.0
139,"In Japan sind es die Frauen, die am Valentinstag die Männer beschenken – mit Schokolade. #UWDT",1.0
140,"Guten Morgen liebe Follower, ich freue mich auf eine Twitter-Woche mit Ihnen!",1.0
141,"Martin #Schulz: ""Ich werde am Sonntag ausführlich darlegen, wie ich in diesen #Wahlkampf ziehen werde.""",0.0
142,(wenn ich heute schon nicht schrauben kann...),0.0
146,"Im Willy-Brandt-Haus spricht gleich Schulz. Gerade noch Gabriel: ""Trump meint es ernst"" wir in Europa aber ""stehen zu den westlichen Werten""",0.0
148,"NEUER, ALTER! 🙌🏼 ^jw #GERITA #EURO2016",0.0
149,Wie ein normaler Mensch morgens ins Büro kommt:,0.0
150,"Ach, Lucy.",0.0
151,"""Dummheiten liest man nicht ungestraft"" - Victor Hugo",0.0
152,"""Max Goldt hat der ZEIT ein Interview gegeben?""-""Ja.""-""Und die liegt auf dem Sofa?""-""Ja.""-""Und das erfahre ich erst jetzt?"" #beziehungskrise",0.0
153,+++ EIL: #Bundesanwaltschaft ermittelt gegen sieben Rechtsextreme +++ (dpa),0.0
154,"Guten Abend! Ich bin Friederike Milbradt und übernehme den Staffelstab von Giovanni di Lorenzo (keine Sorge, nur hier auf Twitter) 👋",1.0
157,"Ließe man sein Haar lebenslang wachsen, könnte es eine Länge von 9,42 Metern erreichen. #UWDT",0.0
158,Unattraktive Männer sind statistisch die besseren Fußballer. #UWDT,1.0
159,"Neun von zehn Menschen heiraten jemanden, der nur bis zu 30 Kilometer von ihrem Geburtsort entfernt geboren wurde. #UWDT",0.0
161,"Fischer: ""Ich möchte nie wieder was von Mitläufern hören. Jeder Erwachsene, der eine Stimme hat, hat eine Verantwortung."" #SPIEGELlive",1.0
163,Lesetip: Thomas Scheen in der FAZ vom Montag über Äthiopien. Mit vielen Details.,1.0
165,Good Morning. Ueberall auf Twitter Trump Sprech. Sad!,-1.0
167,"""I wish Godspeed to the man who was my former opponent and will be my president."" John McCain als großartiger Verlierer. Andere Zeiten.",1.0
168,Die Ergebnisse der #Emmys sind auch nicht eindeutig #gameofabgeordnetenhaus,0.0
170,"Die Queen besitzt keinen Pass. Es reicht, wenn sie ihre Identität selbst bestätigt. #UWDT",0.0
171,Guten Morgen und lasst ihn euch nicht durch den Tag verderben.,1.0
172,"""In der Politik muss man annehmen, dass jede Minute Schreckliches passiert. Dass Soldaten sterben, Menschen entführt werden."" #brigittelive",-1.0
173,"""Ich kann heute besser Menschen einschätzen. Mich selbst weniger ernst nehmen. Kritik vertragen. Außer von meinem Mann."" #brigittelive",0.0
174,+++EIL+++ US-Regierung hat als Reaktion auf den jüngsten Raketentest durch den Iran neue Sanktionen gegen das Land verhängt. (dpa),-1.0
175,Sonntagsumfrage: Halloween oder Reformationstag? #wasistchristlich,0.0
176,FYI: Holocaustleugner und ihre Freunde werden konsequent blockiert. #dasistkeinemeinung,-1.0
178,"(Was Trump vermutlich mehr Sorgen machen würde,  wenn der Geheimdienst ihm KEINE Sexparty nachgewiesen hätte  #justsaying )",0.0
180,"Kinder, die sich kringeln vor Lachen, weil die Ubahnstation "" Schlump"" heißt. #TheKidsAreAlright",1.0
181,"Heute Nacht geträumt, dass der nette 15jährige Spätiverkäufer mir statt Wechselgeld mitleidig eine Teilnehmerurkunde in die Hand drückt.",-1.0
182,"Heute bin ich auf den kopf gefallen, also wortwörtlich, und mir ist schlecht. Deswegen entweder keine tweets oder dumme. Wie ihr wollt.",-1.0
183,"Dienstag. Wahltag.
Und: Schnee ☃️.

Spektakulär",1.0
184,Das passiert eh nicht. #2016in4Words,0.0
186,Erster Vorsatz fürs neue Jahr: Für die Tage zwischen den Jahren ein paar Urlaubstage übrig lassen. #büro #alleinaufweitemflur,0.0
189,Hier ein gute-Laune-Tweet.,1.0
191,"Wer Elphi sagt, sagt auch Fussi #justsayin",0.0
192,"Was sind das eigentlich für Leute, die Tweets von einer Zeitung abliken? Wahrscheinlich die gleichen, die Worte wie ""abliken"" verwenden.",0.0
193,"""Ich bin sehr happyendaffin"" #JuliaEngelmann in #Goslar",0.0
194,it's real,0.0
195,Aufgrund der Nachfragen eben. #MörderischeStille hat Untertitel. Teletext Seite 777.,0.0
196,Und bald soll die Zugverbindung zwischen Moskau und Berlin ein paar Stunden schneller werden. Und Moskau besuchen lohnt immer. (3/3),0.0
197,In Nahost sind Schnurrbarttransplantationen der Renner. Üppige Schnurrbärte gelten dort als männlich und würdevoll. #UWDT,1.0
200,Mehr als 30 Millionen Chinesen leben in Höhlen. #UWDT,0.0
201,Smiley - mit oder ohne Nase? :-) :),0.0
202,"Weil in den USA zwischen 1942 und 1945 Edelmetalle knapp waren, wurden die Oscars aus Gips und ohne die übliche Goldglasur gefertigt. #UWDT",0.0
204,"Sachsen-Anhalt in einem Satz? Auf die Frage, wie gut der Kuchen denn schmecke, antwortet der Kellner: ""Es is noch keener dran jestorben.""",0.0
206,Guten Morgen liebe Follower. Ich freue mich auf eine Woche mit Ihnen. (Und sehr auf Weihnachten in meiner Heimat Schwaben),1.0
207,"Vielen Dank, Frau Merkel! #brigittelive wird am 24. Mai fortgesetzt mit Arbeitsministerin Ursula von der Leyen.",1.0
212,"DPA meldet, Altbundespräsident Roman Herzog ist tot. Gleich mehr.",-1.0
213,Lupita. Lupita. Lupita! #Oscars,0.0
216,"Oder eher Fans von ""Being John Malkovich""? Jedenfalls: Was da gemacht wird, steht im aktuellen ""Wissen""-Teil.",0.0
217,Hätte ich sicherheitshalber Satirealarm geben müssen?,0.0
221,Sonntag ist,0.0
222,Zeitung fertig.   Wir auch.,-1.0
223,Nachfolgende Sendungen verschieben sich durch das #ZDFspezial um etwa 10 Minuten.,0.0
224,"""Mit mir wird es keine Hatz gegen Minderheiten geben"", sagt  #Schulz bei Pressekonferenz mit #Gabriel. #SPD",0.0
226,"Gute Nachrichten für alle #Bergdoktor-Fans! Am Donnerstag starten wir mit einem Winterspecial in die zehnte Staffel!

Oder in Emojies: ❄️🏔🏥😷",1.0
229,"Gut, dass alle Probleme gelöst sind. Diskutieren wir also die korrekte Bekleidung der Frau   #KampfplatzFrau",0.0
231,"Statt in der Konferenz heute morgen beim Zahnarzt. Auch dort wird nachgebohrt. (Entschuldigung, mein Wortwitzzentrum ist schon betäubt.)",0.0
232,Aus aktuellem Anlass: Die #Wahrheit ist die Satire-Seite der taz.,0.0
234,#MeinUtopia: Barrierefreiheit überall.,0.0
235,"Das gesprochene Zeichen für Punkt, Absatz? ""Genau.""",0.0
237,"Ich werde zum geeigneten Zeitpunkt das schreiben, was ich dann schreiben kann. Das gebe ich Ihnen schon mal schriftlich. #kannichauch",0.0
238,And the next Bundespräsident is: Frank-Walter Steinmeier? CDU unterstützt laut Meldungen seine Kandidatur.,0.0
239,Kann Klang zu perfekt sein? Sind Tarantino Songs von einem Streichquartett eingespielt nicht Quatsch? Tolles Interview #Quatuor Ébène S.43,0.0
240,Zug fahren und  Feuilletonlesen passt irgendwie gut zusammen,0.0
241,Für jeden Tweet muss ich raus auf die Straße gehen. Bin umgezogen. Seit 4 Monaten warten wir auf Telekom! Und die Betonwände halten dicht,-1.0
243,"PS. Und falls Sie sich fragen, wie es denn nun lief mit der Bahn: Bislang nur 32 Min Verspätung - und einen neuen Freund gefunden #goodtimes",1.0
244,"Selbstkritik in Ehren. Aber Trump wurde nicht wegen zu viel Witzen über ihn auf Twitter gewählt.
Vor allem nicht wegen Witzen auf deutsch.",-1.0
249,Guten Morgen! Erste Brexit-Folgen in Deutschland: Bahn stoppt Börsengänge von Tochterunternehmen wegen Pfund-Absturz. Läuft in Europa.,1.0
250,Im neuen ZEIT-Dossier: Wie die AfD-Landtagsfraktion in Sachsen-Anhalt arbeitet &amp; wie die anderen Parteien dort mit ihr umgehen. Lehrreich.,0.0
251,Die Haard ist ein Naherholungsgebiet nahe Recklinghausen. #UWDT #yippeekiyay,0.0
252,Berlin hat gewonnen. Im Fußball.,1.0
254,#Reformationsjubiläumsgedenklutherjahr2017,0.0
257,"L. Marmor zum Tod von H. #Mankell: ""Er prägte den Kieler #Tatort durch seine Geschichten ... werden ihn als großartigen Erzähler vermissen.""",-1.0
260,Ich gucke NCSI statt Tatort. #AndreaNahles #brigittelive,0.0
262,ein bisschen mehr Platz bei Twitter! #MeinUtopia,0.0
263,"Jetzt noch ein extrem runterziehender, kräftezehrender und depressiver Sonntagsspaziergang, um mal an die frische Luft zu kommen.",-1.0
268,"So, war ein paar Stunden abgetaucht. Jetzt ist das Interview für die nächste Ausgabe ist im Kasten und ich bin wieder für Sie da.",0.0
269,Die Liebe bringt Sex in den Körper. Eva-Maria Zurhorst bei #brigittelive,0.0
271,Und mein Lieblingssatz: Katja Nicodemus über die Schauspielerin Isabelle Huppert: Niemand kann auf so großartige Weise genervt sein wie sie,1.0
273,"Gleich gesellen sich ...

Hajo Schumacher 👓
Wolfram Weimer 🗒
Ruth Westheimer 🍆
Tim Mälzer 🍽
Paul Panzer 😂

...  zu #Lanz in die Runde.",0.0
274,"""Perfektionismus wird nur Frauen vorgeworfen."" Ursula von der Leyen #BRIsymp",0.0
275,"Heute, 8 Uhr, teilten die Berliner Bäder per Newsletter mit, dass das #Stadtbad heute erst um 14 Uhr öffnet. Genau mein Humor.",0.0
277,Der letzte Verbündete des Lügners D. Trump ist die Wahrheit: über H. Clintons Emails ...,-1.0
278,Wir erstellen gerade eine Sommer/Heißester-Tag-des-Jahres-Playlist - jemand Ideen?,0.0
279,"Es regnet! Da halte ich es mit Karl Valentin: ich freue mich, dass es regnet. Denn würde ich mich nicht freuen, regnete es auch. Schönen Tag",1.0
281,"Wonderwall, Spice Girls, Fat Boy Slim - fühlt sich an, als würde man morgen seine Führerscheinprüfung haben. #closingceremony",1.0
282,Warum #Journalismus ein so verantwortungsvoller Job ist? Weil das Sagbare und das Nichtsagbare den Raum des Machbaren definieren.,0.0
284,Die Wahl ist noch nicht entschieden. Doch momentan scheint der Schnee gestern ein besseres Orakel zu sein als Wähler-Umfragen. Gruselig.,0.0
285,"19,78 Sek. brauchte Supersprinter Bolt für 200 m. Ich wünschte, ich käme in dieser Zeit morgens aus dem Bett. Allen Lesern einen schönen Tag",1.0
286,"Hierzulande wird über die Gesichtsverschleierung diskutiert, als gäbe es keine Erfahrungen in anderen Ländern damit.",-1.0
289,Soll die #NPD verboten werden?,0.0
292,"""Ich war wirklich froh, als ""Böser Wolf"" fertig war. Das war das schwierigste meiner Bücher,weil das Thema Kindesmisshandlung so hart ist.""",-1.0
293,Gomez. Den fand man früher mal nur wegen der Haare schön. Die Älteren werden sich erinnern. ^jw #GERPOL #EURO2016,1.0
294,"+++EIL

Thomas de Maizière und Heiko Maas haben als Konsequenz aus dem Anschlag von Berlin ein härteres Vorgehen gegen Gefährder vereinbart.",0.0
295,"+++ EIL +++
#Merkel mahnt bei #Erdogan Einhaltung der Meinungsfreiheit an. „Opposition gehört zu einer Demokratie dazu“,sagte sie. (dpa)",0.0
297,"Noch vier Tage bis zur Amerika-Wahl. Zeit für Umfrage Nr 2: Was passiert mit der Wirtschaft, wenn Trump gewinnt?",0.0
300,"Was beeindruckt Sie an Männern, Frau Dörrie: ""Ein Pferd!"" (okay, sie liebt auch Winnetou) #brigittelive",0.0
302,"Wer hier als Journalist tindert, kann sich jede Verlags-Weihnachtsfeier sparen. #Hamburg-Eimsbüttel #Café #Echokammer #Blasenbildung",0.0
305,"Hier diskutieren alle über MARX, unsere Titelgeschichte. Puh, und ich dachte, ich komme bei Twitter mit Promi-News und Kaffee-Pics durch.",0.0
308,Zur Mittagspause eine Umfrage zu einer bisher ungelösten Frage: Wie nutzen Sie dieses Emoji: 🙏🏻? #wasistchristlich,0.0
312,+++ EIL +++ Jogi Löw hat beide Hände in den Taschen! +++ EIL +++ ^jw #GERPOL #EURO2016,0.0
314,UPDATE: Police say only one of the two men arrested in a shooting at a Quebec City mosque that left six people dead is a suspect in the case,0.0
316,Das wird so eine Woche #Vorahnung,0.0
317,"""Die deutsche Flüchtlingspolitik macht mich stolz. Dass Deutschland von den USA als ""Hippie"" betrachtet wird, ist doch toll!"" #brigittelive",0.0
318,"Taxifahrer fragt mich: Warum sperrt man Terroristen nicht ein, bevor sie eine Tat begehen?

.....

.....

Oh, hier muss ich raus!",0.0
322,"""Wir werden uns verändern müssen, um das zu bleiben, was wir sind."" Karola Wille zu den anstehenden Strukturreformen der ARD #ARDPK",0.0
324,Die schlechten Nachrichten heute morgen? Viele. Die guten? Naja. Scarlett Johansson ist wieder solo. Damit schaff ichs bis zum ersten Kaffee,-1.0
326,"""Meine Mutter wird nächstes Jahr 80. Sie lebt bei uns und bügelt noch immer meine Sachen."" #brigittelive",0.0
329,#HandballWM17: ARD will Handball auf die Free-TV-Liste der Großereignisse im Rundfunkstaatsvertrag haben. #ARDPK,0.0
331,"""Ich bin zu Hause, wenn ich fremd bin."" Doris Dörrie fühlt sich in der Fremde wohl. #brigittelive",1.0
332,"Hilfe, eine Woche twittern mit dem ZEIT-Account, der Druck steigt, das Kleinhirn streikt, Konsequenz: Die ZEIT schweigt.",-1.0
334,"(Und ja, der letzte Tweet ergibt keinen Sinn. Aber das ist nicht meine Schuld, sondern die der Welt. Die ist jetzt wohl so.)",0.0
335,Schon alle Geschenke beisammen?,1.0
338,"Guten Morgen liebe Follower, diesen Tag sollten Sie nutzen, um noch etwas in der Zeit zu lesen - morgen kommt ja schon unsere neue Ausgabe",1.0
339,"Was hat die #Katzensteuer mit Baudelaire und Uwe Johnson zu tun? Lesen Sie alle Elisabeth von Thaddens Text im Feuilleton, er ist so toll😍😍😍",1.0
344,Nach dem Igel »Sonic the Hedgehog« aus den Sega-Computerspielen ist ein Protein benannt: SHH #UWDT,0.0
346,Am flughafen tegel wurde gerade meine haarklammer mit einem schlagring verwechselt. Aber für einen kurzen moment war ich echt badass.,0.0
347,"Kommt, wir schnüffeln alle gleichzeitig an unseren Fingern - das bringt Glück! ^jw #GERFRA",0.0
351,"""Für ein Xing-Profil sollten sie sich vorher überlegen, wo sie in zwei Jahren sein wollen.""#BRIsymp",0.0
352,"Für einen Artikel in der neuen Ausgabe habe ich u.a. mit einem ehemaligen Genossen von mir gesprochen, der heute AfD-Politiker ist, Seite 5",0.0
353,"+++Eil+++ #Arbeitslosenzahl steigt im Dezember auf 2,568 Millionen (dpa)",0.0
354,+++ #Eilmeldung: Warnstreiks im öffentlichen Dienst der Länder angekündigt. #Streik #Handelsblatt,-1.0
357,"Bauz, pardauz ...",0.0
359,"Eben im Gespräch mit einem 16-Jährigen. Er stellt mir, ernsthaft neugierig, diese Frage: »Wer kauft eigentlich Zeitungen?« #jobmitzukunft",0.0
362,Am Montag tauft Margot Käßmann einen ICE auf den Namen “Martin Luther”. Man wird sagen: “Bis dato der längste Luther aller Zeiten.”,0.0
363,"Mein neuer Gemüsehändler verzweifelt: Ein Nachbar beschwert sich über zu breite Stände, ein anderer über Fliegen. Das Ordnungsamt kommt nun",-1.0
364,Unentschieden in Berlin. #BSCS04,0.0
366,"Leben Journalisten, die Trumps Wahl nicht vorausgesehen haben, in einer Blase? Leben Trump-Wähler, die Fakten ignorieren, in einer Blase?",0.0
367,"Trump soeben: ""We have a great economic plan"".

Er meint den Rückfall in den Protektionismus?",-1.0
368,3. Staffel von #Weissensee auch im Netz erfolgreich: 670.000 Abrufe in einer Woche.,1.0
369,Ist das österreichisch oder kann das weg? - Fragen des Korrektorats,0.0
370,"„Ich bin beim Sport eher ein Morgenmensch. Vorher ist es immer eine Vernunftentscheidung, dann kommt der Spaß.“ #brigittelive",0.0
372,"Syrien: ""Die erste Antwort ist immer: Militär, Militär, obwohl es schon ein Krisenherd ist. Man muss auch was anderes wagen"" #brigittelive",-1.0
373,🔴EIL: Klarstellung: Kein NPD-Verbot-  fehlende Anhaltspunkte für eine erfolgreiche Durchsetzung ihrer verfassungsfeindlichen Ziele,-1.0
377,+++ EIL: Staatsanwaltschaft ermittelt gegen #Winterkorn wegen Betrugsverdachts. +++ (dpa) #dieselgate #vw,-1.0
378,Aus »Regierung« lässt sich das Anagramm »genug Irre« bilden. #UWDT,0.0
379,"„#Volksverräter“ ist das „#Unwort des Jahres 2016“.
Das gab die Jury in #Darmstadt bekannt. (dpa)
#handelsblatt #unwort #Deutschland",0.0
380,Schlussrunde bei #hartaberfair: Welches Tier wären Sie gerne?,0.0
382,+++Eil+++ Flugzeugentführung in #Malta beendet (dpa),-1.0
384,"Fischer: ""Die Frage müsste eigentlich lauten: 'Können die Europäer Europa noch retten?'"" #SPIEGELlive",0.0
385,Wir halten es mit Thomas Roth und wünschen: Kommen Sie gut durch die Nacht. #off,1.0
390,Das große Hallo.,0.0
392,Vermeintliche Trends 2017: Kuschelkurs und Würgegriff. Zwischendurch Schlingern.,0.0
394,"Fischer: ""Europa gilt heute als Ursache allen Übels, dabei lebt Hamburg von Europa - und viele andere Städte auch"" #SPIEGELlive",-1.0
397,"Nilpferde sind Schweine, keine Pferde. #UWDT",0.0
398,"""Ich wache jeden Tag auf &amp; freue mich, dass ein neuer Tag beginnt.Eine neue Gelegenheit,Dinge zu lernen &amp; neue Erfahrungen zu machen.""#fbm16",1.0
